Addition to the map test
****************************************************
AssociativeArray.put(K,V): 1851
HashMap.put(K,V): 1993

Get from the map test
------------
AssociativeArray.get(K): 0
HashMap.get(K): 0
------------
AssociativeArray.remove(K): 0
HashMap.remove(K): 0